/*
WARNING: Do NOT edit the input and output ports in this file in a text
editor if you plan to continue editing the block that represents it in
the Block Editor! File corruption is VERY likely to occur.
*/
/*
Copyright (C) 1991-2013 Altera Corporation
Your use of Altera Corporation's design tools, logic functions 
and other software and tools, and its AMPP partner logic 
functions, and any output files from any of the foregoing 
(including device programming or simulation files), and any 
associated documentation or information are expressly subject 
to the terms and conditions of the Altera Program License 
Subscription Agreement, Altera MegaCore Function License 
Agreement, or other applicable license agreement, including, 
without limitation, that your use is for the sole purpose of 
programming logic devices manufactured by Altera and sold by 
Altera or its authorized distributors.  Please refer to the 
applicable agreement for further details.
*/
(header "graphic" (version "1.4"))
(pin
	(input)
	(rect -400 -8 -232 8)
	(text "INPUT" (rect 125 0 153 10)(font "Arial" (font_size 6)))
	(text "clk" (rect 5 0 19 12)(font "Arial" ))
	(pt 168 8)
	(drawing
		(line (pt 84 12)(pt 109 12))
		(line (pt 84 4)(pt 109 4))
		(line (pt 113 8)(pt 168 8))
		(line (pt 84 12)(pt 84 4))
		(line (pt 109 4)(pt 113 8))
		(line (pt 109 12)(pt 113 8))
	)
	(text "VCC" (rect 128 7 148 17)(font "Arial" (font_size 6)))
	(annotation_block (location)(rect -456 8 -400 24))
)
(pin
	(input)
	(rect -224 552 -56 568)
	(text "INPUT" (rect 125 0 153 10)(font "Arial" (font_size 6)))
	(text "sw[3..0]" (rect 5 0 43 12)(font "Arial" ))
	(pt 168 8)
	(drawing
		(line (pt 84 12)(pt 109 12))
		(line (pt 84 4)(pt 109 4))
		(line (pt 113 8)(pt 168 8))
		(line (pt 84 12)(pt 84 4))
		(line (pt 109 4)(pt 113 8))
		(line (pt 109 12)(pt 113 8))
	)
	(text "VCC" (rect 128 7 148 17)(font "Arial" (font_size 6)))
	(annotation_block (location)(rect -272 552 -224 568))
)
(pin
	(input)
	(rect -224 520 -56 536)
	(text "INPUT" (rect 125 0 153 10)(font "Arial" (font_size 6)))
	(text "bt1" (rect 5 0 20 12)(font "Arial" ))
	(pt 168 8)
	(drawing
		(line (pt 84 12)(pt 109 12))
		(line (pt 84 4)(pt 109 4))
		(line (pt 113 8)(pt 168 8))
		(line (pt 84 12)(pt 84 4))
		(line (pt 109 4)(pt 113 8))
		(line (pt 109 12)(pt 113 8))
	)
	(text "VCC" (rect 128 7 148 17)(font "Arial" (font_size 6)))
	(annotation_block (location)(rect -344 520 -280 536))
)
(pin
	(input)
	(rect -224 536 -56 552)
	(text "INPUT" (rect 125 0 153 10)(font "Arial" (font_size 6)))
	(text "sw[4]" (rect 5 0 30 12)(font "Arial" ))
	(pt 168 8)
	(drawing
		(line (pt 84 12)(pt 109 12))
		(line (pt 84 4)(pt 109 4))
		(line (pt 113 8)(pt 168 8))
		(line (pt 84 12)(pt 84 4))
		(line (pt 109 4)(pt 113 8))
		(line (pt 109 12)(pt 113 8))
	)
	(text "VCC" (rect 128 7 148 17)(font "Arial" (font_size 6)))
	(annotation_block (location)(rect -280 552 -224 568))
)
(pin
	(output)
	(rect 1096 584 1272 600)
	(text "OUTPUT" (rect 1 0 39 10)(font "Arial" (font_size 6)))
	(text "seg0[6..0]" (rect 90 0 139 12)(font "Arial" ))
	(pt 0 8)
	(drawing
		(line (pt 0 8)(pt 52 8))
		(line (pt 52 4)(pt 78 4))
		(line (pt 52 12)(pt 78 12))
		(line (pt 52 12)(pt 52 4))
		(line (pt 78 4)(pt 82 8))
		(line (pt 82 8)(pt 78 12))
		(line (pt 78 12)(pt 82 8))
	)
	(annotation_block (location)(rect 1272 584 1328 600))
)
(pin
	(output)
	(rect 1048 664 1224 680)
	(text "OUTPUT" (rect 1 0 39 10)(font "Arial" (font_size 6)))
	(text "seg1[6..0]" (rect 90 0 139 12)(font "Arial" ))
	(pt 0 8)
	(drawing
		(line (pt 0 8)(pt 52 8))
		(line (pt 52 4)(pt 78 4))
		(line (pt 52 12)(pt 78 12))
		(line (pt 52 12)(pt 52 4))
		(line (pt 78 4)(pt 82 8))
		(line (pt 82 8)(pt 78 12))
		(line (pt 78 12)(pt 82 8))
	)
	(annotation_block (location)(rect 1224 664 1280 680))
)
(pin
	(output)
	(rect 864 312 1040 328)
	(text "OUTPUT" (rect 1 0 39 10)(font "Arial" (font_size 6)))
	(text "horiz_sync_out" (rect 90 0 164 12)(font "Arial" ))
	(pt 0 8)
	(drawing
		(line (pt 0 8)(pt 52 8))
		(line (pt 52 4)(pt 78 4))
		(line (pt 52 12)(pt 78 12))
		(line (pt 52 12)(pt 52 4))
		(line (pt 78 4)(pt 82 8))
		(line (pt 82 8)(pt 78 12))
		(line (pt 78 12)(pt 82 8))
	)
	(annotation_block (location)(rect 1040 312 1112 328))
)
(pin
	(output)
	(rect 864 328 1040 344)
	(text "OUTPUT" (rect 1 0 39 10)(font "Arial" (font_size 6)))
	(text "vert_sync_out" (rect 90 0 161 12)(font "Arial" ))
	(pt 0 8)
	(drawing
		(line (pt 0 8)(pt 52 8))
		(line (pt 52 4)(pt 78 4))
		(line (pt 52 12)(pt 78 12))
		(line (pt 52 12)(pt 52 4))
		(line (pt 78 4)(pt 82 8))
		(line (pt 82 8)(pt 78 12))
		(line (pt 78 12)(pt 82 8))
	)
	(annotation_block (location)(rect 1040 328 1112 344))
)
(pin
	(output)
	(rect 864 264 1040 280)
	(text "OUTPUT" (rect 1 0 39 10)(font "Arial" (font_size 6)))
	(text "red_out[3..0]" (rect 90 0 152 12)(font "Arial" ))
	(pt 0 8)
	(drawing
		(line (pt 0 8)(pt 52 8))
		(line (pt 52 4)(pt 78 4))
		(line (pt 52 12)(pt 78 12))
		(line (pt 52 12)(pt 52 4))
		(line (pt 78 4)(pt 82 8))
		(line (pt 82 8)(pt 78 12))
		(line (pt 78 12)(pt 82 8))
	)
	(annotation_block (location)(rect 1040 264 1096 280))
)
(pin
	(output)
	(rect 864 280 1040 296)
	(text "OUTPUT" (rect 1 0 39 10)(font "Arial" (font_size 6)))
	(text "green_out[3..0]" (rect 90 0 164 12)(font "Arial" ))
	(pt 0 8)
	(drawing
		(line (pt 0 8)(pt 52 8))
		(line (pt 52 4)(pt 78 4))
		(line (pt 52 12)(pt 78 12))
		(line (pt 52 12)(pt 52 4))
		(line (pt 78 4)(pt 82 8))
		(line (pt 82 8)(pt 78 12))
		(line (pt 78 12)(pt 82 8))
	)
	(annotation_block (location)(rect 1040 280 1096 296))
)
(pin
	(output)
	(rect 864 296 1040 312)
	(text "OUTPUT" (rect 1 0 39 10)(font "Arial" (font_size 6)))
	(text "blue_out[3..0]" (rect 90 0 157 12)(font "Arial" ))
	(pt 0 8)
	(drawing
		(line (pt 0 8)(pt 52 8))
		(line (pt 52 4)(pt 78 4))
		(line (pt 52 12)(pt 78 12))
		(line (pt 52 12)(pt 52 4))
		(line (pt 78 4)(pt 82 8))
		(line (pt 82 8)(pt 78 12))
		(line (pt 78 12)(pt 82 8))
	)
	(annotation_block (location)(rect 1040 296 1096 312))
)
(pin
	(bidir)
	(rect -64 216 112 232)
	(text "BIDIR" (rect 1 0 25 10)(font "Arial" (font_size 6)))
	(text "mouse_data" (rect 90 0 150 12)(font "Arial" ))
	(pt 0 8)
	(drawing
		(line (pt 56 4)(pt 78 4))
		(line (pt 0 8)(pt 52 8))
		(line (pt 56 12)(pt 78 12))
		(line (pt 78 4)(pt 82 8))
		(line (pt 78 12)(pt 82 8))
		(line (pt 56 4)(pt 52 8))
		(line (pt 52 8)(pt 56 12))
	)
	(text "VCC" (rect 4 7 24 17)(font "Arial" (font_size 6)))
	(annotation_block (location)(rect 112 216 168 232))
)
(pin
	(bidir)
	(rect -64 232 112 248)
	(text "BIDIR" (rect 1 0 25 10)(font "Arial" (font_size 6)))
	(text "mouse_clk" (rect 90 0 143 12)(font "Arial" ))
	(pt 0 8)
	(drawing
		(line (pt 56 4)(pt 78 4))
		(line (pt 0 8)(pt 52 8))
		(line (pt 56 12)(pt 78 12))
		(line (pt 78 4)(pt 82 8))
		(line (pt 78 12)(pt 82 8))
		(line (pt 56 4)(pt 52 8))
		(line (pt 52 8)(pt 56 12))
	)
	(text "VCC" (rect 4 7 24 17)(font "Arial" (font_size 6)))
	(annotation_block (location)(rect 112 232 168 248))
)
(symbol
	(rect -360 352 -328 384)
	(text "GND" (rect 8 16 29 26)(font "Arial" (font_size 6)))
	(text "inst" (rect 3 21 20 33)(font "Arial" )(invisible))
	(port
		(pt 16 0)
		(output)
		(text "1" (rect 18 0 23 12)(font "Courier New" (bold))(invisible))
		(text "1" (rect 18 0 23 12)(font "Courier New" (bold))(invisible))
		(line (pt 16 8)(pt 16 0))
	)
	(drawing
		(line (pt 8 8)(pt 16 16))
		(line (pt 16 16)(pt 24 8))
		(line (pt 8 8)(pt 24 8))
	)
)
(symbol
	(rect -328 192 -64 336)
	(text "MOUSE" (rect 5 0 43 12)(font "Arial" ))
	(text "mouse" (rect 8 128 41 140)(font "Arial" ))
	(port
		(pt 0 32)
		(input)
		(text "clock_25Mhz" (rect 0 0 62 12)(font "Arial" ))
		(text "clock_25Mhz" (rect 21 27 83 39)(font "Arial" ))
		(line (pt 0 32)(pt 16 32))
	)
	(port
		(pt 0 48)
		(input)
		(text "reset" (rect 0 0 24 12)(font "Arial" ))
		(text "reset" (rect 21 43 45 55)(font "Arial" ))
		(line (pt 0 48)(pt 16 48))
	)
	(port
		(pt 264 64)
		(output)
		(text "left_button" (rect 0 0 53 12)(font "Arial" ))
		(text "left_button" (rect 199 59 252 71)(font "Arial" ))
		(line (pt 264 64)(pt 248 64))
	)
	(port
		(pt 264 80)
		(output)
		(text "right_button" (rect 0 0 57 12)(font "Arial" ))
		(text "right_button" (rect 195 75 252 87)(font "Arial" ))
		(line (pt 264 80)(pt 248 80))
	)
	(port
		(pt 264 96)
		(output)
		(text "mouse_cursor_row[9..0]" (rect 0 0 118 12)(font "Arial" ))
		(text "mouse_cursor_row[9..0]" (rect 144 91 262 103)(font "Arial" ))
		(line (pt 264 96)(pt 248 96)(line_width 3))
	)
	(port
		(pt 264 112)
		(output)
		(text "mouse_cursor_column[9..0]" (rect 0 0 136 12)(font "Arial" ))
		(text "mouse_cursor_column[9..0]" (rect 128 107 264 119)(font "Arial" ))
		(line (pt 264 112)(pt 248 112)(line_width 3))
	)
	(port
		(pt 264 32)
		(bidir)
		(text "mouse_data" (rect 0 0 60 12)(font "Arial" ))
		(text "mouse_data" (rect 194 27 254 39)(font "Arial" ))
		(line (pt 264 32)(pt 248 32))
	)
	(port
		(pt 264 48)
		(bidir)
		(text "mouse_clk" (rect 0 0 53 12)(font "Arial" ))
		(text "mouse_clk" (rect 200 43 253 55)(font "Arial" ))
		(line (pt 264 48)(pt 248 48))
	)
	(drawing
		(rectangle (rect 16 16 248 128))
	)
)
(symbol
	(rect 248 48 400 128)
	(text "Clock_Divider" (rect 5 0 74 12)(font "Arial" ))
	(text "clock_divider" (rect 8 64 72 76)(font "Arial" ))
	(port
		(pt 0 32)
		(input)
		(text "clk" (rect 0 0 14 12)(font "Arial" ))
		(text "clk" (rect 21 27 35 39)(font "Arial" ))
		(line (pt 0 32)(pt 16 32))
	)
	(port
		(pt 152 32)
		(output)
		(text "clock_out" (rect 0 0 47 12)(font "Arial" ))
		(text "clock_out" (rect 92 27 139 39)(font "Arial" ))
		(line (pt 152 32)(pt 136 32))
	)
	(drawing
		(rectangle (rect 16 16 136 64))
	)
)
(symbol
	(rect 872 640 1032 720)
	(text "dec_7seg" (rect 5 0 52 12)(font "Arial" ))
	(text "mouse_col" (rect 8 64 61 76)(font "Arial" ))
	(port
		(pt 0 32)
		(input)
		(text "W[3..0]" (rect 0 0 36 12)(font "Arial" ))
		(text "W[3..0]" (rect 21 27 57 39)(font "Arial" ))
		(line (pt 0 32)(pt 16 32)(line_width 3))
	)
	(port
		(pt 160 32)
		(output)
		(text "F[6..0]" (rect 0 0 33 12)(font "Arial" ))
		(text "F[6..0]" (rect 112 27 145 39)(font "Arial" ))
		(line (pt 160 32)(pt 144 32)(line_width 3))
	)
	(drawing
		(rectangle (rect 16 16 144 64))
	)
)
(symbol
	(rect 896 560 1056 640)
	(text "dec_7seg" (rect 5 0 52 12)(font "Arial" ))
	(text "mouse_row" (rect 8 64 63 76)(font "Arial" ))
	(port
		(pt 0 32)
		(input)
		(text "W[3..0]" (rect 0 0 36 12)(font "Arial" ))
		(text "W[3..0]" (rect 21 27 57 39)(font "Arial" ))
		(line (pt 0 32)(pt 16 32)(line_width 3))
	)
	(port
		(pt 160 32)
		(output)
		(text "F[6..0]" (rect 0 0 33 12)(font "Arial" ))
		(text "F[6..0]" (rect 112 27 145 39)(font "Arial" ))
		(line (pt 160 32)(pt 144 32)(line_width 3))
	)
	(drawing
		(rectangle (rect 16 16 144 64))
	)
)
(symbol
	(rect -56 480 168 624)
	(text "fsm" (rect 5 0 25 12)(font "Arial" ))
	(text "flyingspaghettimonster" (rect 8 128 121 140)(font "Arial" ))
	(port
		(pt 0 32)
		(input)
		(text "clk" (rect 0 0 14 12)(font "Arial" ))
		(text "clk" (rect 21 27 35 39)(font "Arial" ))
		(line (pt 0 32)(pt 16 32))
	)
	(port
		(pt 0 48)
		(input)
		(text "reset_btn" (rect 0 0 46 12)(font "Arial" ))
		(text "reset_btn" (rect 21 43 67 55)(font "Arial" ))
		(line (pt 0 48)(pt 16 48))
	)
	(port
		(pt 0 64)
		(input)
		(text "pause_btn" (rect 0 0 50 12)(font "Arial" ))
		(text "pause_btn" (rect 21 59 71 71)(font "Arial" ))
		(line (pt 0 64)(pt 16 64))
	)
	(port
		(pt 0 80)
		(input)
		(text "sw[3..0]" (rect 0 0 38 12)(font "Arial" ))
		(text "sw[3..0]" (rect 21 75 59 87)(font "Arial" ))
		(line (pt 0 80)(pt 16 80)(line_width 3))
	)
	(port
		(pt 0 96)
		(input)
		(text "timer_up" (rect 0 0 42 12)(font "Arial" ))
		(text "timer_up" (rect 21 91 63 103)(font "Arial" ))
		(line (pt 0 96)(pt 16 96))
	)
	(port
		(pt 0 112)
		(input)
		(text "level" (rect 0 0 23 12)(font "Arial" ))
		(text "level" (rect 21 107 44 119)(font "Arial" ))
		(line (pt 0 112)(pt 16 112))
	)
	(port
		(pt 224 32)
		(output)
		(text "timer_state[1..0]" (rect 0 0 81 12)(font "Arial" ))
		(text "timer_state[1..0]" (rect 135 27 216 39)(font "Arial" ))
		(line (pt 224 32)(pt 208 32)(line_width 3))
	)
	(port
		(pt 224 48)
		(output)
		(text "gameMode_out[2..0]" (rect 0 0 100 12)(font "Arial" ))
		(text "gameMode_out[2..0]" (rect 119 43 219 55)(font "Arial" ))
		(line (pt 224 48)(pt 208 48)(line_width 3))
	)
	(drawing
		(rectangle (rect 16 16 208 128))
	)
)
(symbol
	(rect 112 760 336 872)
	(text "countdown" (rect 5 0 56 12)(font "Arial" ))
	(text "inst1" (rect 8 96 31 108)(font "Arial" ))
	(port
		(pt 0 32)
		(input)
		(text "clk_50MHz" (rect 0 0 53 12)(font "Arial" ))
		(text "clk_50MHz" (rect 21 27 74 39)(font "Arial" ))
		(line (pt 0 32)(pt 16 32))
	)
	(port
		(pt 0 48)
		(input)
		(text "timerState[1..0]" (rect 0 0 76 12)(font "Arial" ))
		(text "timerState[1..0]" (rect 21 43 97 55)(font "Arial" ))
		(line (pt 0 48)(pt 16 48)(line_width 3))
	)
	(port
		(pt 224 32)
		(output)
		(text "finished" (rect 0 0 38 12)(font "Arial" ))
		(text "finished" (rect 171 27 209 39)(font "Arial" ))
		(line (pt 224 32)(pt 208 32))
	)
	(port
		(pt 224 48)
		(output)
		(text "digit1_out[5..0]" (rect 0 0 73 12)(font "Arial" ))
		(text "digit1_out[5..0]" (rect 142 43 215 55)(font "Arial" ))
		(line (pt 224 48)(pt 208 48)(line_width 3))
	)
	(port
		(pt 224 64)
		(output)
		(text "digit10_out[5..0]" (rect 0 0 79 12)(font "Arial" ))
		(text "digit10_out[5..0]" (rect 137 59 216 71)(font "Arial" ))
		(line (pt 224 64)(pt 208 64)(line_width 3))
	)
	(drawing
		(rectangle (rect 16 16 208 96))
	)
)
(symbol
	(rect 312 256 520 464)
	(text "model" (rect 5 0 34 12)(font "Arial" ))
	(text "model" (rect 8 192 37 204)(font "Arial" ))
	(port
		(pt 0 32)
		(input)
		(text "vert_sync_int" (rect 0 0 68 12)(font "Arial" ))
		(text "vert_sync_int" (rect 21 27 89 39)(font "Arial" ))
		(line (pt 0 32)(pt 16 32))
	)
	(port
		(pt 0 48)
		(input)
		(text "MX[9..0]" (rect 0 0 40 12)(font "Arial" ))
		(text "MX[9..0]" (rect 21 43 61 55)(font "Arial" ))
		(line (pt 0 48)(pt 16 48)(line_width 3))
	)
	(port
		(pt 0 64)
		(input)
		(text "shoot" (rect 0 0 27 12)(font "Arial" ))
		(text "shoot" (rect 21 59 48 71)(font "Arial" ))
		(line (pt 0 64)(pt 16 64))
	)
	(port
		(pt 0 80)
		(input)
		(text "gameMode[2..0]" (rect 0 0 79 12)(font "Arial" ))
		(text "gameMode[2..0]" (rect 21 75 100 87)(font "Arial" ))
		(line (pt 0 80)(pt 16 80)(line_width 3))
	)
	(port
		(pt 0 96)
		(input)
		(text "random[8..0]" (rect 0 0 62 12)(font "Arial" ))
		(text "random[8..0]" (rect 21 91 83 103)(font "Arial" ))
		(line (pt 0 96)(pt 16 96)(line_width 3))
	)
	(port
		(pt 208 32)
		(output)
		(text "BX[10..0]" (rect 0 0 44 12)(font "Arial" ))
		(text "BX[10..0]" (rect 150 27 187 39)(font "Arial" ))
		(line (pt 208 32)(pt 192 32)(line_width 3))
	)
	(port
		(pt 208 48)
		(output)
		(text "BY[10..0]" (rect 0 0 47 12)(font "Arial" ))
		(text "BY[10..0]" (rect 148 43 187 55)(font "Arial" ))
		(line (pt 208 48)(pt 192 48)(line_width 3))
	)
	(port
		(pt 208 64)
		(output)
		(text "T1X[10..0]" (rect 0 0 49 12)(font "Arial" ))
		(text "T1X[10..0]" (rect 146 59 187 71)(font "Arial" ))
		(line (pt 208 64)(pt 192 64)(line_width 3))
	)
	(port
		(pt 208 80)
		(output)
		(text "T1Y[10..0]" (rect 0 0 51 12)(font "Arial" ))
		(text "T1Y[10..0]" (rect 144 75 187 87)(font "Arial" ))
		(line (pt 208 80)(pt 192 80)(line_width 3))
	)
	(port
		(pt 208 96)
		(output)
		(text "T2X[10..0]" (rect 0 0 49 12)(font "Arial" ))
		(text "T2X[10..0]" (rect 146 91 187 103)(font "Arial" ))
		(line (pt 208 96)(pt 192 96)(line_width 3))
	)
	(port
		(pt 208 112)
		(output)
		(text "T2Y[10..0]" (rect 0 0 51 12)(font "Arial" ))
		(text "T2Y[10..0]" (rect 144 107 187 119)(font "Arial" ))
		(line (pt 208 112)(pt 192 112)(line_width 3))
	)
	(port
		(pt 208 128)
		(output)
		(text "T3X[10..0]" (rect 0 0 49 12)(font "Arial" ))
		(text "T3X[10..0]" (rect 146 123 187 135)(font "Arial" ))
		(line (pt 208 128)(pt 192 128)(line_width 3))
	)
	(port
		(pt 208 144)
		(output)
		(text "T3Y[10..0]" (rect 0 0 51 12)(font "Arial" ))
		(text "T3Y[10..0]" (rect 144 139 187 151)(font "Arial" ))
		(line (pt 208 144)(pt 192 144)(line_width 3))
	)
	(port
		(pt 208 160)
		(output)
		(text "tank2_hit" (rect 0 0 44 12)(font "Arial" ))
		(text "tank2_hit" (rect 150 155 187 167)(font "Arial" ))
		(line (pt 208 160)(pt 192 160))
	)
	(port
		(pt 208 176)
		(output)
		(text "tank3_hit" (rect 0 0 44 12)(font "Arial" ))
		(text "tank3_hit" (rect 150 171 187 183)(font "Arial" ))
		(line (pt 208 176)(pt 192 176))
	)
	(parameter
		"ADDR_WIDTH"
		"12"
		""
		(type "PARAMETER_SIGNED_DEC")	)
	(parameter
		"DATA_WIDTH"
		"1"
		""
		(type "PARAMETER_SIGNED_DEC")	)
	(drawing
		(rectangle (rect 16 16 192 192))
	)
	(annotation_block (parameter)(rect 312 208 512 256))
)
(symbol
	(rect 640 240 848 512)
	(text "draw" (rect 5 0 27 12)(font "Arial" ))
	(text "draw" (rect 8 256 30 268)(font "Arial" ))
	(port
		(pt 0 32)
		(input)
		(text "Clock" (rect 0 0 28 12)(font "Arial" ))
		(text "Clock" (rect 21 27 49 39)(font "Arial" ))
		(line (pt 0 32)(pt 16 32))
	)
	(port
		(pt 0 48)
		(input)
		(text "BX[10..0]" (rect 0 0 44 12)(font "Arial" ))
		(text "BX[10..0]" (rect 21 43 65 55)(font "Arial" ))
		(line (pt 0 48)(pt 16 48)(line_width 3))
	)
	(port
		(pt 0 64)
		(input)
		(text "BY[10..0]" (rect 0 0 47 12)(font "Arial" ))
		(text "BY[10..0]" (rect 21 59 68 71)(font "Arial" ))
		(line (pt 0 64)(pt 16 64)(line_width 3))
	)
	(port
		(pt 0 80)
		(input)
		(text "T1X[10..0]" (rect 0 0 49 12)(font "Arial" ))
		(text "T1X[10..0]" (rect 21 75 70 87)(font "Arial" ))
		(line (pt 0 80)(pt 16 80)(line_width 3))
	)
	(port
		(pt 0 96)
		(input)
		(text "T1Y[10..0]" (rect 0 0 51 12)(font "Arial" ))
		(text "T1Y[10..0]" (rect 21 91 72 103)(font "Arial" ))
		(line (pt 0 96)(pt 16 96)(line_width 3))
	)
	(port
		(pt 0 112)
		(input)
		(text "T2X[10..0]" (rect 0 0 49 12)(font "Arial" ))
		(text "T2X[10..0]" (rect 21 107 70 119)(font "Arial" ))
		(line (pt 0 112)(pt 16 112)(line_width 3))
	)
	(port
		(pt 0 128)
		(input)
		(text "T2Y[10..0]" (rect 0 0 51 12)(font "Arial" ))
		(text "T2Y[10..0]" (rect 21 123 72 135)(font "Arial" ))
		(line (pt 0 128)(pt 16 128)(line_width 3))
	)
	(port
		(pt 0 144)
		(input)
		(text "T3X[10..0]" (rect 0 0 49 12)(font "Arial" ))
		(text "T3X[10..0]" (rect 21 139 70 151)(font "Arial" ))
		(line (pt 0 144)(pt 16 144)(line_width 3))
	)
	(port
		(pt 0 160)
		(input)
		(text "T3Y[10..0]" (rect 0 0 51 12)(font "Arial" ))
		(text "T3Y[10..0]" (rect 21 155 72 167)(font "Arial" ))
		(line (pt 0 160)(pt 16 160)(line_width 3))
	)
	(port
		(pt 0 176)
		(input)
		(text "tank2_hit" (rect 0 0 44 12)(font "Arial" ))
		(text "tank2_hit" (rect 21 171 65 183)(font "Arial" ))
		(line (pt 0 176)(pt 16 176))
	)
	(port
		(pt 0 192)
		(input)
		(text "tank3_hit" (rect 0 0 44 12)(font "Arial" ))
		(text "tank3_hit" (rect 21 187 65 199)(font "Arial" ))
		(line (pt 0 192)(pt 16 192))
	)
	(port
		(pt 0 208)
		(input)
		(text "gamemode[2..0]" (rect 0 0 80 12)(font "Arial" ))
		(text "gamemode[2..0]" (rect 21 203 101 215)(font "Arial" ))
		(line (pt 0 208)(pt 16 208)(line_width 3))
	)
	(port
		(pt 0 224)
		(input)
		(text "digit10s[5..0]" (rect 0 0 63 12)(font "Arial" ))
		(text "digit10s[5..0]" (rect 21 219 84 231)(font "Arial" ))
		(line (pt 0 224)(pt 16 224)(line_width 3))
	)
	(port
		(pt 0 240)
		(input)
		(text "digit1s[5..0]" (rect 0 0 57 12)(font "Arial" ))
		(text "digit1s[5..0]" (rect 21 235 78 247)(font "Arial" ))
		(line (pt 0 240)(pt 16 240)(line_width 3))
	)
	(port
		(pt 208 32)
		(output)
		(text "red[3..0]" (rect 0 0 41 12)(font "Arial" ))
		(text "red[3..0]" (rect 153 27 187 39)(font "Arial" ))
		(line (pt 208 32)(pt 192 32)(line_width 3))
	)
	(port
		(pt 208 48)
		(output)
		(text "green[3..0]" (rect 0 0 53 12)(font "Arial" ))
		(text "green[3..0]" (rect 143 43 187 55)(font "Arial" ))
		(line (pt 208 48)(pt 192 48)(line_width 3))
	)
	(port
		(pt 208 64)
		(output)
		(text "blue[3..0]" (rect 0 0 46 12)(font "Arial" ))
		(text "blue[3..0]" (rect 149 59 187 71)(font "Arial" ))
		(line (pt 208 64)(pt 192 64)(line_width 3))
	)
	(port
		(pt 208 80)
		(output)
		(text "horiz_sync" (rect 0 0 53 12)(font "Arial" ))
		(text "horiz_sync" (rect 143 75 187 87)(font "Arial" ))
		(line (pt 208 80)(pt 192 80))
	)
	(port
		(pt 208 96)
		(output)
		(text "vert_sync" (rect 0 0 50 12)(font "Arial" ))
		(text "vert_sync" (rect 145 91 187 103)(font "Arial" ))
		(line (pt 208 96)(pt 192 96))
	)
	(parameter
		"ADDR_WIDTH"
		"12"
		""
		(type "PARAMETER_SIGNED_DEC")	)
	(parameter
		"DATA_WIDTH"
		"1"
		""
		(type "PARAMETER_SIGNED_DEC")	)
	(drawing
		(rectangle (rect 16 16 192 256))
	)
	(annotation_block (parameter)(rect 632 192 832 240))
)
(symbol
	(rect 608 560 832 672)
	(text "hitToScore" (rect 5 0 56 12)(font "Arial" ))
	(text "inst3" (rect 8 96 31 108)(font "Arial" ))
	(port
		(pt 0 32)
		(input)
		(text "clk" (rect 0 0 14 12)(font "Arial" ))
		(text "clk" (rect 21 27 35 39)(font "Arial" ))
		(line (pt 0 32)(pt 16 32))
	)
	(port
		(pt 0 48)
		(input)
		(text "tank2_hit" (rect 0 0 44 12)(font "Arial" ))
		(text "tank2_hit" (rect 21 43 65 55)(font "Arial" ))
		(line (pt 0 48)(pt 16 48))
	)
	(port
		(pt 0 64)
		(input)
		(text "tank3_hit" (rect 0 0 44 12)(font "Arial" ))
		(text "tank3_hit" (rect 21 59 65 71)(font "Arial" ))
		(line (pt 0 64)(pt 16 64))
	)
	(port
		(pt 0 80)
		(input)
		(text "gamemode[2..0]" (rect 0 0 80 12)(font "Arial" ))
		(text "gamemode[2..0]" (rect 21 75 101 87)(font "Arial" ))
		(line (pt 0 80)(pt 16 80)(line_width 3))
	)
	(port
		(pt 224 32)
		(output)
		(text "output1s[3..0]" (rect 0 0 68 12)(font "Arial" ))
		(text "output1s[3..0]" (rect 146 27 203 39)(font "Arial" ))
		(line (pt 224 32)(pt 208 32)(line_width 3))
	)
	(port
		(pt 224 48)
		(output)
		(text "output10s[3..0]" (rect 0 0 74 12)(font "Arial" ))
		(text "output10s[3..0]" (rect 141 43 203 55)(font "Arial" ))
		(line (pt 224 48)(pt 208 48)(line_width 3))
	)
	(drawing
		(rectangle (rect 16 16 208 96))
	)
)
(symbol
	(rect 584 736 784 848)
	(text "level" (rect 5 0 28 12)(font "Arial" ))
	(text "inst5" (rect 8 96 31 108)(font "Arial" ))
	(port
		(pt 0 32)
		(input)
		(text "clk" (rect 0 0 14 12)(font "Arial" ))
		(text "clk" (rect 21 27 35 39)(font "Arial" ))
		(line (pt 0 32)(pt 16 32))
	)
	(port
		(pt 0 48)
		(input)
		(text "gamemode[2..0]" (rect 0 0 80 12)(font "Arial" ))
		(text "gamemode[2..0]" (rect 21 43 101 55)(font "Arial" ))
		(line (pt 0 48)(pt 16 48)(line_width 3))
	)
	(port
		(pt 0 64)
		(input)
		(text "tank2_hit" (rect 0 0 44 12)(font "Arial" ))
		(text "tank2_hit" (rect 21 59 65 71)(font "Arial" ))
		(line (pt 0 64)(pt 16 64))
	)
	(port
		(pt 0 80)
		(input)
		(text "tank3_hit" (rect 0 0 44 12)(font "Arial" ))
		(text "tank3_hit" (rect 21 75 65 87)(font "Arial" ))
		(line (pt 0 80)(pt 16 80))
	)
	(port
		(pt 200 32)
		(output)
		(text "level_up" (rect 0 0 41 12)(font "Arial" ))
		(text "level_up" (rect 145 27 179 39)(font "Arial" ))
		(line (pt 200 32)(pt 184 32))
	)
	(drawing
		(rectangle (rect 16 16 184 96))
	)
)
(symbol
	(rect 664 56 816 136)
	(text "pseudorng" (rect 5 0 55 12)(font "Arial" ))
	(text "inst2" (rect 8 64 31 76)(font "Arial" ))
	(port
		(pt 0 32)
		(input)
		(text "clock" (rect 0 0 25 12)(font "Arial" ))
		(text "clock" (rect 21 27 46 39)(font "Arial" ))
		(line (pt 0 32)(pt 16 32))
	)
	(port
		(pt 152 32)
		(output)
		(text "Q[8..0]" (rect 0 0 34 12)(font "Arial" ))
		(text "Q[8..0]" (rect 103 27 131 39)(font "Arial" ))
		(line (pt 152 32)(pt 136 32)(line_width 3))
	)
	(drawing
		(rectangle (rect 16 16 136 64))
	)
)
(connector
	(text "clk_25MHz" (rect 400 64 453 76)(font "Arial" ))
	(pt 400 80)
	(pt 440 80)
)
(connector
	(text "clk_25MHz" (rect -432 208 -379 220)(font "Arial" ))
	(pt -368 224)
	(pt -328 224)
)
(connector
	(pt -344 240)
	(pt -344 352)
)
(connector
	(pt -328 240)
	(pt -344 240)
)
(connector
	(text "clk_50MHz" (rect -230 -16 -177 -4)(font "Arial" ))
	(pt -232 0)
	(pt -168 0)
)
(connector
	(text "clk_50MHz" (rect 186 64 239 76)(font "Arial" ))
	(pt 184 80)
	(pt 248 80)
)
(connector
	(text "vert_sync" (rect 872 475 884 525)(font "Arial" )(vertical))
	(pt 856 336)
	(pt 856 528)
)
(connector
	(text "vert_sync" (rect 240 272 290 284)(font "Arial" ))
	(pt 272 288)
	(pt 312 288)
)
(connector
	(pt -40 256)
	(pt -40 320)
)
(connector
	(pt -40 320)
	(pt 312 320)
)
(connector
	(pt -64 256)
	(pt -40 256)
)
(connector
	(pt -64 304)
	(pt 312 304)
	(bus)
)
(connector
	(text "clk_25MHz" (rect 536 264 589 276)(font "Arial" ))
	(pt 600 272)
	(pt 640 272)
)
(connector
	(pt 864 272)
	(pt 848 272)
	(bus)
)
(connector
	(pt 864 288)
	(pt 848 288)
	(bus)
)
(connector
	(pt 520 288)
	(pt 640 288)
	(bus)
)
(connector
	(pt 864 304)
	(pt 848 304)
	(bus)
)
(connector
	(pt 520 304)
	(pt 640 304)
	(bus)
)
(connector
	(pt 864 320)
	(pt 848 320)
)
(connector
	(pt 520 320)
	(pt 640 320)
	(bus)
)
(connector
	(pt 520 336)
	(pt 640 336)
	(bus)
)
(connector
	(pt 520 352)
	(pt 640 352)
	(bus)
)
(connector
	(pt 520 368)
	(pt 640 368)
	(bus)
)
(connector
	(pt 520 384)
	(pt 640 384)
	(bus)
)
(connector
	(pt 520 400)
	(pt 640 400)
	(bus)
)
(connector
	(pt 848 336)
	(pt 856 336)
)
(connector
	(pt 856 336)
	(pt 864 336)
)
(connector
	(text "vert_sync" (rect 536 576 586 588)(font "Arial" ))
	(pt 568 592)
	(pt 608 592)
)
(connector
	(pt 552 608)
	(pt 608 608)
)
(connector
	(pt 872 672)
	(pt 832 672)
	(bus)
)
(connector
	(pt 832 608)
	(pt 832 672)
	(bus)
)
(connector
	(text "mode[2..0]" (rect 194 328 247 340)(font "Arial" ))
	(pt 312 336)
	(pt 264 336)
	(bus)
)
(connector
	(pt 832 592)
	(pt 896 592)
	(bus)
)
(connector
	(text "timermode[1..0]" (rect 216 488 293 500)(font "Arial" ))
	(pt 176 504)
	(pt 248 504)
	(bus)
)
(connector
	(pt 240 552)
	(pt 240 528)
	(bus)
)
(connector
	(text "mode[2..0]" (rect 192 568 245 580)(font "Arial" ))
	(pt 240 528)
	(pt 168 528)
	(bus)
)
(connector
	(pt 176 504)
	(pt 176 512)
	(bus)
)
(connector
	(pt 176 512)
	(pt 168 512)
	(bus)
)
(connector
	(text "level" (rect -142 584 -119 596)(font "Arial" ))
	(pt -56 592)
	(pt -112 592)
)
(connector
	(text "vert_sync" (rect -160 496 -110 508)(font "Arial" ))
	(pt -96 512)
	(pt -56 512)
)
(connector
	(text "clk_50MHz" (rect 48 776 101 788)(font "Arial" ))
	(pt 48 792)
	(pt 112 792)
)
(connector
	(text "timermode[1..0]" (rect 16 792 93 804)(font "Arial" ))
	(pt 16 808)
	(pt 112 808)
	(bus)
)
(connector
	(text "time1s[5..0]" (rect 384 792 443 804)(font "Arial" ))
	(pt 336 808)
	(pt 416 808)
	(bus)
)
(connector
	(text "time10s[5..0]" (rect 384 808 448 820)(font "Arial" ))
	(pt 336 824)
	(pt 416 824)
	(bus)
)
(connector
	(pt 1056 592)
	(pt 1096 592)
	(bus)
)
(connector
	(pt 1032 672)
	(pt 1048 672)
	(bus)
)
(connector
	(pt 312 360)
	(pt 312 352)
	(bus)
)
(connector
	(text "random[8..0]" (rect 264 344 326 356)(font "Arial" ))
	(pt 264 360)
	(pt 312 360)
	(bus)
)
(connector
	(text "finished" (rect 336 776 374 788)(font "Arial" ))
	(pt 336 792)
	(pt 368 792)
)
(connector
	(text "finished" (rect -80 560 -42 572)(font "Arial" ))
	(pt -80 576)
	(pt -56 576)
)
(connector
	(pt 536 432)
	(pt 536 624)
)
(connector
	(pt 520 432)
	(pt 536 432)
)
(connector
	(pt 536 432)
	(pt 640 432)
)
(connector
	(pt 520 416)
	(pt 552 416)
)
(connector
	(pt 552 416)
	(pt 640 416)
)
(connector
	(text "mode[2..0]" (rect 560 432 613 444)(font "Arial" ))
	(pt 640 448)
	(pt 590 448)
	(bus)
)
(connector
	(text "time1s[5..0]" (rect 594 464 653 476)(font "Arial" ))
	(pt 584 480)
	(pt 640 480)
	(bus)
)
(connector
	(text "time10s[5..0]" (rect 578 448 642 460)(font "Arial" ))
	(pt 568 464)
	(pt 640 464)
	(bus)
)
(connector
	(text "mode[2..0]" (rect 474 632 527 644)(font "Arial" ))
	(pt 608 640)
	(pt 536 640)
	(bus)
)
(connector
	(pt 520 760)
	(pt 520 768)
)
(connector
	(pt 568 624)
	(pt 568 816)
)
(connector
	(text "vert_sync" (rect 482 736 532 748)(font "Arial" ))
	(pt 520 768)
	(pt 584 768)
)
(connector
	(text "mode[2..0]" (rect 448 776 501 788)(font "Arial" ))
	(pt 512 784)
	(pt 584 784)
	(bus)
)
(connector
	(pt 552 800)
	(pt 584 800)
)
(connector
	(pt 568 816)
	(pt 584 816)
)
(connector
	(text "level" (rect 784 752 807 764)(font "Arial" ))
	(pt 784 768)
	(pt 800 768)
)
(connector
	(pt 536 624)
	(pt 568 624)
)
(connector
	(pt 568 624)
	(pt 608 624)
)
(connector
	(pt 552 416)
	(pt 552 608)
)
(connector
	(pt 552 608)
	(pt 552 800)
)
(connector
	(pt 880 80)
	(pt 880 88)
	(bus)
)
(connector
	(text "random[8..0]" (rect 826 72 888 84)(font "Arial" ))
	(pt 880 88)
	(pt 816 88)
	(bus)
)
(connector
	(text "vert_sync" (rect 624 72 674 84)(font "Arial" ))
	(pt 624 88)
	(pt 664 88)
)
(junction (pt 856 336))
(junction (pt 552 608))
(junction (pt 568 624))
(junction (pt 552 416))
(junction (pt 536 432))
