Depth = 8;
Width = 8;
Address_radix = oct;
Data_radix = bin;
% BALL ROM Data %
Content
  Begin
000  : 00011000 ; %     **      %
001  : 00111100 ; %    ****     %
002  : 01111110 ; %   ******    %
003  : 01111110 ; %   ******    %
004  : 01111110 ; %   ******    %
005  : 00111100 ; %    ****     %
006  : 00011000 ; %     **      %
007  : 00000000 ; %             %

End;
